/home/javi/w/ns/products/ecoteka-pro/keycloak/keycloak-event-listener/src/main/java/com/ns/ecoteka/HTTPEventListenerProvider.java
/home/javi/w/ns/products/ecoteka-pro/keycloak/keycloak-event-listener/src/main/java/com/ns/ecoteka/WebHookUserEvent.java
/home/javi/w/ns/products/ecoteka-pro/keycloak/keycloak-event-listener/src/main/java/com/ns/ecoteka/HTTPEventListenerProviderFactory.java
